{
	"name": "painlessmeshlistener",
	"authors": [
		"Edwin van Leeuwen"
	],
	"dependencies": {
		"vibe-d:core": "~>0.8.0",
		"vibe-d:stream": "~>0.8.0",
		"scriptlike": "~>0.10.2",
		"painlessjson": "~>1.3.8"
	},
    "versions":["VibeNoDefaultArgs"],
	"description": "A listen server for a ESP based painlessMesh, which can be run on any computer (including raspberry-pi).",
	"copyright": "Copyright © 2017, Edwin van Leeuwen",
	"license": "GPL-3.0"
}
